<?xml version="1.0" encoding="UTF-8" standalone="no"?>
<!-- Generator: Adobe Illustrator 16.0.4, SVG Export Plug-In . SVG Version: 6.00 Build 0)  -->

<svg
   xmlns:dc="http://purl.org/dc/elements/1.1/"
   xmlns:cc="http://creativecommons.org/ns#"
   xmlns:rdf="http://www.w3.org/1999/02/22-rdf-syntax-ns#"
   xmlns:svg="http://www.w3.org/2000/svg"
   xmlns="http://www.w3.org/2000/svg"
   xmlns:sodipodi="http://sodipodi.sourceforge.net/DTD/sodipodi-0.dtd"
   xmlns:inkscape="http://www.inkscape.org/namespaces/inkscape"
   version="1.1"
   id="Livello_1"
   x="0px"
   y="0px"
   width="64"
   height="64"
   viewBox="0 0 64 63.999998"
   enable-background="new 0 0 66.403 57.955"
   xml:space="preserve"
   inkscape:version="0.92.3 (2405546, 2018-03-11)"
   sodipodi:docname="file_graphics.svg"
   inkscape:export-filename="/home/daniele/mdf/mdf_client/mdf_client/art/file_graphics.png"
   inkscape:export-xdpi="96"
   inkscape:export-ydpi="96"><metadata
     id="metadata25"><rdf:RDF><cc:Work
         rdf:about=""><dc:format>image/svg+xml</dc:format><dc:type
           rdf:resource="http://purl.org/dc/dcmitype/StillImage" /><dc:title /></cc:Work></rdf:RDF></metadata><defs
     id="defs23" /><sodipodi:namedview
     pagecolor="#ffffff"
     bordercolor="#666666"
     borderopacity="1"
     objecttolerance="10"
     gridtolerance="10"
     guidetolerance="10"
     inkscape:pageopacity="0"
     inkscape:pageshadow="2"
     inkscape:window-width="1888"
     inkscape:window-height="1029"
     id="namedview21"
     showgrid="false"
     inkscape:zoom="8.1442494"
     inkscape:cx="-28.25991"
     inkscape:cy="37.238274"
     inkscape:window-x="32"
     inkscape:window-y="22"
     inkscape:window-maximized="1"
     inkscape:current-layer="Livello_1" /><g
     id="g941"><rect
       y="3.3625176"
       x="3.8696187"
       height="56.848064"
       width="56.848579"
       id="rect818"
       style="fill:#ffffff;fill-opacity:1;fill-rule:nonzero;stroke:#808080;stroke-width:5.64507627;stroke-linecap:round;stroke-linejoin:round;stroke-miterlimit:4;stroke-dasharray:none;stroke-dashoffset:0;stroke-opacity:1;paint-order:markers stroke fill" /><rect
       y="-3.8361623"
       x="50.388878"
       height="16.915392"
       width="16.670343"
       id="rect818-9"
       style="fill:#ffffff;fill-opacity:1;fill-rule:nonzero;stroke:#808080;stroke-width:6;stroke-linecap:round;stroke-linejoin:round;stroke-miterlimit:4;stroke-dasharray:none;stroke-dashoffset:0;stroke-opacity:1;paint-order:markers stroke fill" /><rect
       y="-9.9900084"
       x="55.723709"
       height="16.915392"
       width="16.670343"
       id="rect818-9-6"
       style="fill:#ffffff;fill-opacity:1;fill-rule:nonzero;stroke:#808080;stroke-width:6;stroke-linecap:round;stroke-linejoin:round;stroke-miterlimit:4;stroke-dasharray:none;stroke-dashoffset:0;stroke-opacity:1;paint-order:markers stroke fill" /></g><path
     style="fill:#808080;fill-opacity:1;stroke-width:0.12381449"
     d="m 40.033279,6.302705 -8.242338,0.0018 C 27.25854,6.3048503 21.931674,6.3647092 19.95152,6.4384083 l -3.600454,0.13425 -0.89675,0.2076032 C 10.902051,7.8334322 7.0314157,12.03788 5.9518201,17.102566 l -0.1901029,0.888646 -0.060557,1.65394 -0.06225,1.653904 0.1261927,0.888646 c 1.1342172,7.94293 6.2193801,11.567716 16.2558601,11.595397 h 0.711673 c 5.318495,0.231823 3.594683,0.232516 7.037702,0.03564 l 0.366783,-0.07509 c 0.20114,-0.03841 1.14726,-0.03114 2.10306,0.02076 l 1.737977,0.09307 0.380238,0.27369 c 0.209345,0.14982 0.478015,0.429496 0.595581,0.622221 l 0.213674,0.34867 0.201889,1.555605 0.203582,1.553806 0.252353,0.250161 0.252352,0.248432 h 0.496322 0.498009 l 0.26583,-0.325234 C 37.73406,37.901772 37.946081,36.831232 38.085,34.612093 l 0.1245,-1.98652 -0.07403,-2.871566 C 38.0321,25.720554 37.787363,24.261692 37.124314,23.731924 l -0.269187,-0.214521 -0.393695,0.091 c -0.569525,0.130444 -0.731771,0.4287 -1.043122,1.923928 -0.152857,0.734292 -0.376595,1.504984 -0.498001,1.712933 l -0.222074,0.379049 -0.750382,0.450602 -0.750371,0.450568 -1.711057,0.04463 -1.712734,-0.04844 h -0.861415 l -9.480623,0.05363 -3.2791,-0.01384 -0.730189,-0.191341 C 15.021536,28.265284 14.268908,27.923707 13.748319,27.610226 L 12.801108,27.039837 11.99353,26.054656 11.185952,25.069442 10.736731,23.919735 C 10.173796,22.47762 10.015502,21.639561 10.021688,20.134472 l 0.0052,-1.190846 0.230507,-0.899371 c 0.304478,-1.190812 0.926172,-2.331315 1.835554,-3.365074 l 0.743642,-0.845742 0.928718,-0.5543 c 0.510722,-0.305176 1.231684,-0.658309 1.601689,-0.784947 l 0.672982,-0.228709 3.33462,-0.05363 8.676415,-0.153973 v -0.01384 h 0.861416 0.861418 0.861414 l 2.585929,0.0035 c 1.896202,10e-4 3.772914,0.05882 4.170802,0.128714 l 0.723453,0.128714 0.445848,0.382647 c 0.598624,0.514198 1.395075,1.81542 2.535459,4.146423 0.521104,1.065178 1.13924,2.171702 1.374561,2.45854 l 0.42903,0.522122 0.440802,0.091 c 0.243139,0.05189 0.597298,0.0526 0.785705,0 l 0.341535,-0.091 0.174963,-0.327321 0.174965,-0.32559 -0.132901,-0.995942 C 44.353294,15.684049 42.941417,9.5256745 42.304754,7.7809086 L 41.973305,6.8690118 41.675502,6.7205756 C 41.511934,6.6382264 41.074736,6.5102044 40.704724,6.4361592 Z"
     id="path828-3-5-3-5-2-7"
     inkscape:connector-curvature="0" /><path
     style="fill:#ff0000;fill-opacity:1;stroke-width:0.12381449"
     d="m 22.707443,21.487906 v 8.215998 5.194232 h 0.02182 l -0.02182,2.977063 c 1.273632,2.26668 7.150565,4.979154 7.120095,2.339272 l -0.04711,-4.171473 h -0.01009 v -0.961964 l -0.0017,-0.150166 h 0.0017 v -5.199629 -1.012031 -7.275486 c 0,0 0,0 -7.062891,0.04429 z m 13.363722,18.334472 0.0032,0.0035 h 0.496323 0.498008 l 0.0032,-0.0035 z"
     id="path828-3-5-3-9-1-0"
     inkscape:connector-curvature="0"
     sodipodi:nodetypes="ccccccccccccccccccccc" /><rect
     style="fill:#ff0000;fill-opacity:1;fill-rule:nonzero;stroke:none;stroke-width:10.27571487;stroke-miterlimit:4;stroke-dasharray:none;stroke-dashoffset:0;stroke-opacity:1"
     id="rect1657"
     width="7.204421"
     height="34.238377"
     x="-29.923849"
     y="-53.295631"
     transform="scale(-1)" /><rect
     style="fill:#ff0000;fill-opacity:1;fill-rule:nonzero;stroke:none;stroke-width:7.80090046;stroke-miterlimit:4;stroke-dasharray:none;stroke-dashoffset:0;stroke-opacity:1"
     id="rect1657-3"
     width="7.204421"
     height="19.732336"
     x="-54.389652"
     y="22.719427"
     transform="rotate(-90)" /><path
     style="fill:#ff0000;fill-opacity:1;fill-rule:nonzero;stroke:none;stroke-width:7.29363775;stroke-miterlimit:4;stroke-dasharray:none;stroke-dashoffset:0;stroke-opacity:1"
     d="m 26.277645,11.992718 7.015454,8.720485 H 19.350177 Z"
     id="rect869-6-7"
     inkscape:connector-curvature="0"
     sodipodi:nodetypes="cccc" /><path
     style="fill:#ff0000;fill-opacity:1;fill-rule:nonzero;stroke:none;stroke-width:7.29363775;stroke-miterlimit:4;stroke-dasharray:none;stroke-dashoffset:0;stroke-opacity:1"
     d="m 47.720177,50.743452 -8.720485,7.015452 v -13.94292 z"
     id="rect869-6-7-5"
     inkscape:connector-curvature="0"
     sodipodi:nodetypes="cccc" /><rect
     style="fill:#ffffff;fill-opacity:1;fill-rule:nonzero;stroke:none;stroke-width:6;stroke-linecap:round;stroke-linejoin:round;stroke-miterlimit:4;stroke-dasharray:none;stroke-dashoffset:0;stroke-opacity:1;paint-order:markers stroke fill"
     id="rect818-9-5"
     width="16.670343"
     height="16.915392"
     x="55.723709"
     y="-9.9900084" /></svg>