<?xml version="1.0" encoding="UTF-8" standalone="no"?>
<!-- Generator: Adobe Illustrator 16.0.4, SVG Export Plug-In . SVG Version: 6.00 Build 0)  -->

<svg
   xmlns:dc="http://purl.org/dc/elements/1.1/"
   xmlns:cc="http://creativecommons.org/ns#"
   xmlns:rdf="http://www.w3.org/1999/02/22-rdf-syntax-ns#"
   xmlns:svg="http://www.w3.org/2000/svg"
   xmlns="http://www.w3.org/2000/svg"
   xmlns:sodipodi="http://sodipodi.sourceforge.net/DTD/sodipodi-0.dtd"
   xmlns:inkscape="http://www.inkscape.org/namespaces/inkscape"
   version="1.1"
   id="Livello_1"
   x="0px"
   y="0px"
   width="64"
   height="64"
   viewBox="0 0 64 63.999998"
   enable-background="new 0 0 66.403 57.955"
   xml:space="preserve"
   inkscape:version="0.92.3 (2405546, 2018-03-11)"
   sodipodi:docname="graphics.svg"
   inkscape:export-filename="/home/daniele/misura4/misura.client/misura/client/art/graphics.png"
   inkscape:export-xdpi="96"
   inkscape:export-ydpi="96"><metadata
     id="metadata25"><rdf:RDF><cc:Work
         rdf:about=""><dc:format>image/svg+xml</dc:format><dc:type
           rdf:resource="http://purl.org/dc/dcmitype/StillImage" /><dc:title /></cc:Work></rdf:RDF></metadata><defs
     id="defs23" /><sodipodi:namedview
     pagecolor="#ffffff"
     bordercolor="#666666"
     borderopacity="1"
     objecttolerance="10"
     gridtolerance="10"
     guidetolerance="10"
     inkscape:pageopacity="0"
     inkscape:pageshadow="2"
     inkscape:window-width="1888"
     inkscape:window-height="1029"
     id="namedview21"
     showgrid="false"
     inkscape:zoom="8.1442494"
     inkscape:cx="-28.25991"
     inkscape:cy="37.238274"
     inkscape:window-x="32"
     inkscape:window-y="22"
     inkscape:window-maximized="1"
     inkscape:current-layer="Livello_1" /><path
     style="fill:#808080;fill-opacity:1;stroke-width:0.15285739"
     d="m 43.165636,0.26771864 -10.175725,0.00222 c -5.595557,4.285e-4 -12.171935,0.0743284 -14.616569,0.1653149 l -4.445006,0.1657408 -1.107098,0.2563002 C 7.201158,2.1575053 2.4225956,7.3481819 1.0897616,13.600881 l -0.23469504,1.097093 -0.0747616,2.041901 -0.0768517,2.041858 0.15579346,1.097093 C 2.2595149,29.684913 8.5374929,34.159957 20.92821,34.194131 h 0.878609 c 6.566043,0.286201 4.437879,0.287056 8.68852,0.044 l 0.452818,-0.0927 c 0.248321,-0.04742 1.41637,-0.03845 2.596372,0.02563 l 2.145649,0.114907 0.469431,0.337889 c 0.25845,0.184964 0.590142,0.530243 0.735284,0.768175 l 0.263796,0.430456 0.249245,1.9205 0.251336,1.918279 0.311546,0.308841 0.311547,0.306706 h 0.612743 0.614826 l 0.328187,-0.401537 c 0.488977,-0.596368 0.750731,-1.918022 0.922236,-4.6577 l 0.153704,-2.452494 -0.0914,-3.545144 c -0.127617,-4.979571 -0.429762,-6.780635 -1.248341,-7.43467 l -0.33233,-0.26484 -0.486043,0.112344 c -0.703116,0.161042 -0.903421,0.52926 -1.287804,2.37522 -0.188713,0.906533 -0.464932,1.858005 -0.614817,2.114732 l -0.274166,0.467962 -0.926397,0.556299 -0.926384,0.556257 -2.112416,0.0551 -2.114486,-0.0598 H 29.436 l -11.704474,0.06621 -4.048271,-0.01709 -0.901468,-0.236224 C 12.286942,27.382014 11.357772,26.960314 10.715068,26.573301 L 9.5456727,25.869116 8.5486629,24.652844 7.5516531,23.436529 6.9970589,22.017138 C 6.3020778,20.236749 6.1066527,19.202108 6.1142896,17.343974 l 0.00643,-1.47018 0.2845763,-1.110335 c 0.375899,-1.470138 1.143423,-2.878166 2.2661166,-4.154412 L 9.5894886,9.5649217 10.736054,8.8806007 c 0.630521,-0.3767613 1.520598,-0.8127279 1.977395,-0.969071 L 13.544291,7.6291723 17.661105,7.5629613 28.372729,7.372872 V 7.355785 h 1.063476 1.063479 1.063475 l 3.192504,0.00427 c 2.34099,0.00128 4.657919,0.072618 5.149139,0.1589061 l 0.893151,0.1589061 0.55043,0.472404 c 0.739042,0.6348125 1.722314,2.2412598 3.130195,5.1190408 0.643339,1.315034 1.40647,2.681114 1.696991,3.035235 l 0.529665,0.644595 0.5442,0.112345 c 0.300172,0.06407 0.737406,0.06493 0.970007,0 l 0.421648,-0.112345 0.216004,-0.4041 0.216005,-0.401964 -0.164074,-1.229557 C 48.498989,11.849625 46.755931,4.2466934 45.969926,2.0926613 L 45.560731,0.96686284 45.193073,0.78360824 c -0.201937,-0.1016657 -0.741687,-0.2597175 -1.198492,-0.3511313 z"
     id="path828-3-5-3-5-2-7"
     inkscape:connector-curvature="0" /><path
     style="fill:#ff0000;fill-opacity:1;stroke-width:0.15285739"
     d="m 21.775716,19.014881 v 10.143207 6.412631 h 0.02693 l -0.02693,3.675387 c 1.572385,2.798371 8.827858,6.147103 8.79024,2.88799 l -0.05816,-5.149967 h -0.01246 v -1.18761 l -0.0021,-0.18539 h 0.0021 v -6.419294 -1.249421 -8.982082 c 0,0 0,0 -8.719619,0.05468 z m 16.498423,22.63515 0.004,0.0043 h 0.612743 0.614825 l 0.004,-0.0043 z"
     id="path828-3-5-3-9-1-0"
     inkscape:connector-curvature="0"
     sodipodi:nodetypes="ccccccccccccccccccccc" /><rect
     style="fill:#ff0000;fill-opacity:1;fill-rule:nonzero;stroke:none;stroke-width:12.68606758;stroke-miterlimit:4;stroke-dasharray:none;stroke-dashoffset:0;stroke-opacity:1"
     id="rect1657"
     width="8.8943472"
     height="42.2696"
     x="-30.684858"
     y="-58.283676"
     transform="scale(-1)" /><rect
     style="fill:#ff0000;fill-opacity:1;fill-rule:nonzero;stroke:none;stroke-width:9.63074112;stroke-miterlimit:4;stroke-dasharray:none;stroke-dashoffset:0;stroke-opacity:1"
     id="rect1657-3"
     width="8.8943472"
     height="24.360909"
     x="-59.634323"
     y="21.790512"
     transform="rotate(-90)" /><path
     style="fill:#ff0000;fill-opacity:1;fill-rule:nonzero;stroke:none;stroke-width:9.00449085;stroke-miterlimit:4;stroke-dasharray:none;stroke-dashoffset:0;stroke-opacity:1"
     d="M 26.183373,7.2924262 34.844426,18.058457 H 17.630943 Z"
     id="rect869-6-7"
     inkscape:connector-curvature="0"
     sodipodi:nodetypes="cccc" /><path
     style="fill:#ff0000;fill-opacity:1;fill-rule:nonzero;stroke:none;stroke-width:9.00449085;stroke-miterlimit:4;stroke-dasharray:none;stroke-dashoffset:0;stroke-opacity:1"
     d="M 52.655634,55.132838 41.889603,63.793891 V 46.580408 Z"
     id="rect869-6-7-5"
     inkscape:connector-curvature="0"
     sodipodi:nodetypes="cccc" /></svg>